architecture/Quartus/lab2_2/simulation/qsim/lab2_2.msim.vcd
$comment
	File created using the following command:
		vcd file lab2_2.msim.vcd -direction
$end
$date
	Tue Nov 28 01:59:40 2023
$end
$version
	ModelSim Version 10.1d
$end
$timescale
	1ps
$end
$scope module lab2_2_vlg_vec_tst $end
$var reg 1 ! i $end
$var reg 1 " s0 $end
$var reg 1 # s1 $end
$var wire 1 $ y0 $end
$var wire 1 % y1 $end
$var wire 1 & y2 $end
$var wire 1 ' y3 $end
$var wire 1 ( sampler $end
$scope module i1 $end
$var wire 1 ) gnd $end
$var wire 1 * vcc $end
$var wire 1 + unknown $end
$var tri1 1 , devclrn $end
$var tri1 1 - devpor $end
$var tri1 1 . devoe $end
$var wire 1 / y3~output_o $end
$var wire 1 0 y2~output_o $end
$var wire 1 1 y1~output_o $end
$var wire 1 2 y0~output_o $end
$var wire 1 3 s1~input_o $end
$var wire 1 4 i~input_o $end
$var wire 1 5 s0~input_o $end
$var wire 1 6 y3~0_combout $end
$var wire 1 7 y2~0_combout $end
$var wire 1 8 y1~0_combout $end
$var wire 1 9 y0~0_combout $end
$upscope $end
$upscope $end
$enddefinitions $end
#0
$dumpvars
0!
0"
0#
0$
0%
0&
0'
x(
0)
1*
x+
1,
1-
1.
0/
00
01
02
03
04
05
06
07
08
09
$end
#40000
1"
15
0(
#80000
1#
0"
13
05
1(
#120000
1"
15
0(
#160000
1!
0#
0"
14
03
05
1(
19
12
1$
#200000
1"
15
0(
09
18
02
11
0$
1%
#240000
1#
0"
13
05
1(
08
17
01
10
0%
1&
#280000
1"
15
0(
07
16
00
1/
0&
1'
#320000
0!
0#
0"
04
03
05
1(
06
0/
0'
