architecture/Quartus/lab2_1/simulation/qsim/lab2_1.msim.vcd
$comment
	File created using the following command:
		vcd file lab2_1.msim.vcd -direction
$end
$date
	Tue Nov 28 01:48:44 2023
$end
$version
	ModelSim Version 10.1d
$end
$timescale
	1ps
$end
$scope module lab2_1_vlg_vec_tst $end
$var reg 1 ! I $end
$var reg 1 " S0 $end
$var reg 1 # S1 $end
$var wire 1 $ Y0 $end
$var wire 1 % Y1 $end
$var wire 1 & Y2 $end
$var wire 1 ' Y3 $end
$var wire 1 ( sampler $end
$scope module i1 $end
$var wire 1 ) gnd $end
$var wire 1 * vcc $end
$var wire 1 + unknown $end
$var tri1 1 , devclrn $end
$var tri1 1 - devpor $end
$var tri1 1 . devoe $end
$var wire 1 / Y0~output_o $end
$var wire 1 0 Y1~output_o $end
$var wire 1 1 Y2~output_o $end
$var wire 1 2 Y3~output_o $end
$var wire 1 3 S1~input_o $end
$var wire 1 4 S0~input_o $end
$var wire 1 5 I~input_o $end
$var wire 1 6 inst3~combout $end
$var wire 1 7 inst2~combout $end
$var wire 1 8 inst1~combout $end
$var wire 1 9 inst~combout $end
$upscope $end
$upscope $end
$enddefinitions $end
#0
$dumpvars
0!
0"
0#
0$
0%
0&
0'
x(
0)
1*
x+
1,
1-
1.
0/
00
01
02
03
04
05
06
07
08
09
$end
#40000
1"
14
0(
#80000
1#
0"
13
04
1(
#120000
1"
14
0(
#160000
1!
0#
0"
15
03
04
1(
16
1/
1$
#200000
1"
14
0(
17
06
10
0/
1%
0$
#240000
1#
0"
13
04
1(
18
07
11
00
1&
0%
#280000
1"
14
0(
19
08
12
01
1'
0&
#320000
0!
0#
0"
05
03
04
1(
09
02
0'
#360000
1"
14
0(
#400000
1#
0"
13
04
1(
#440000
1"
14
0(
#480000
1!
0#
0"
15
03
04
1(
16
1/
1$
#520000
1"
14
0(
17
06
10
0/
1%
0$
#560000
1#
0"
13
04
1(
18
07
11
00
1&
0%
#600000
1"
14
0(
19
08
12
01
1'
0&
#640000
0!
0#
0"
05
03
04
1(
09
02
0'
