architecture/Quartus/lab3/simulation/qsim/lab3.msim.vcd
$comment
	File created using the following command:
		vcd file lab3.msim.vcd -direction
$end
$date
	Tue Nov 28 02:29:19 2023
$end
$version
	ModelSim Version 10.1d
$end
$timescale
	1ps
$end
$scope module lab3_vlg_vec_tst $end
$var reg 4 ! a [3:0] $end
$var reg 4 " b [3:0] $end
$var wire 1 # s [3] $end
$var wire 1 $ s [2] $end
$var wire 1 % s [1] $end
$var wire 1 & s [0] $end
$var wire 1 ' sampler $end
$scope module i1 $end
$var wire 1 ( gnd $end
$var wire 1 ) vcc $end
$var wire 1 * unknown $end
$var tri1 1 + devclrn $end
$var tri1 1 , devpor $end
$var tri1 1 - devoe $end
$var wire 1 . s[3]~output_o $end
$var wire 1 / s[2]~output_o $end
$var wire 1 0 s[1]~output_o $end
$var wire 1 1 s[0]~output_o $end
$var wire 1 2 b[3]~input_o $end
$var wire 1 3 a[3]~input_o $end
$var wire 1 4 a[2]~input_o $end
$var wire 1 5 b[2]~input_o $end
$var wire 1 6 b[1]~input_o $end
$var wire 1 7 a[1]~input_o $end
$var wire 1 8 b[0]~input_o $end
$var wire 1 9 a[0]~input_o $end
$var wire 1 : inst|LPM_ADD_SUB_component|auto_generated|result[0]~1 $end
$var wire 1 ; inst|LPM_ADD_SUB_component|auto_generated|result[1]~3 $end
$var wire 1 < inst|LPM_ADD_SUB_component|auto_generated|result[2]~5 $end
$var wire 1 = inst|LPM_ADD_SUB_component|auto_generated|result[3]~6_combout $end
$var wire 1 > inst|LPM_ADD_SUB_component|auto_generated|result[2]~4_combout $end
$var wire 1 ? inst|LPM_ADD_SUB_component|auto_generated|result[1]~2_combout $end
$var wire 1 @ inst|LPM_ADD_SUB_component|auto_generated|result[0]~0_combout $end
$upscope $end
$upscope $end
$enddefinitions $end
#0
$dumpvars
b0 !
b1111 "
1&
1%
1$
1#
x'
0(
1)
x*
1+
1,
1-
1.
1/
10
11
12
03
04
15
16
07
18
09
0:
1;
0<
1=
1>
1?
1@
$end
#20000
b1 !
b1110 "
08
19
0'
#40000
b11 !
b1100 "
b10 !
b1101 "
18
06
09
17
1'
#60000
b11 !
b1100 "
08
19
0'
#80000
b111 !
b1000 "
b101 !
b1010 "
b100 !
b1011 "
18
16
05
09
07
14
1'
#100000
b101 !
b1010 "
08
19
0'
#120000
b111 !
b1000 "
b110 !
b1001 "
18
06
09
17
1'
#140000
b111 !
b1000 "
08
19
0'
#160000
b1111 !
b0 "
b1011 !
b100 "
b1001 !
b110 "
b1000 !
b111 "
18
16
15
02
09
07
04
13
1'
#180000
b1001 !
b110 "
08
19
0'
#200000
b1011 !
b100 "
b1010 !
b101 "
18
06
09
17
1'
#220000
b1011 !
b100 "
08
19
0'
#240000
b1111 !
b0 "
b1101 !
b10 "
b1100 !
b11 "
18
16
05
09
07
14
1'
#260000
b1101 !
b10 "
08
19
0'
#280000
b1111 !
b0 "
b1110 !
b1 "
18
06
09
17
1'
#300000
b1111 !
b0 "
08
19
0'
#320000
b111 !
b11 !
b1 !
b0 !
09
07
04
03
1'
0@
0?
0>
0=
01
00
0/
0.
0&
0%
0$
0#
